module gitlab.com/awesomerei/service-dummy

go 1.16

require github.com/labstack/echo/v4 v4.6.1
// git config user.name "Andre Reinaldi"
// git config --global user.email "andrezacharyreinaldi@gmail.com"